* [33m05d5107[m new file:   result/File6.txt
* [33m0737512[m modified:   Push1.txt
* [33m08b190c[m branch-080:new file:   Git-080.txt
* [33md2823a0[m branch-080 :2eme modif:   File3.txt
* [33m134e133[m modified:   File3.txt
* [33m283d9b0[m modified:   File3.txt
* [33m50452fc[m modified:   File3.txt
* [33ma46e15f[m new file:   branch-2.txt
* [33mb51208d[m modified:   Push1.txt
* [33m319977e[m new file:   Push1.txt
* [33m0dd1097[m new file:   .gitignore
* [33ma472770[m new file:   File8.txt
[31m|[m * [33m5e160dc[m branch-080:new file:   Git-080.txt
[31m|[m * [33m97f518d[m branch-080 :2eme modif:   File3.txt
[31m|[m *   [33m3ba4f6c[m Merge branch 'branch-2': Conflicts: File3.txt
[31m|[m [33m|[m[34m\[m  
[31m|[m [33m|[m * [33m26c8c2d[m modified:   File3.txt
[31m|[m * [34m|[m [33mda02e76[m modified:   File3.txt
[31m|[m * [34m|[m [33m55a0381[m modified:   File3.txt
[31m|[m [34m|[m[34m/[m  
[31m|[m * [33m2485a9d[m new file:   branch-2.txt
[31m|[m[31m/[m  
*   [33m611867d[m Merge branch 'branch-060'
[35m|[m[36m\[m  
[35m|[m * [33m17063c3[m new file:   Git-060.txt
* [36m|[m   [33m2913a3b[m Merge branch 'dev' GIT 060
[36m|[m[1;32m\[m [36m\[m  
[36m|[m [1;32m|[m[36m/[m  
[36m|[m[36m/[m[1;32m|[m   
[36m|[m * [33m16cd098[m new file:   branch1.txt
[36m|[m * [33m3d64280[m modified:   File1-mv.txt
* [1;32m|[m [33m1d5b2e0[m Revert "amend - 2:   File2.txt"
* [1;32m|[m [33md1d4693[m modified:   File2.txt new file:   File3.txt
* [1;32m|[m [33m270bad7[m amend - 2:   File2.txt
* [1;32m|[m [33m29779a2[m modified:   File1-mv.txt
[1;32m|[m[1;32m/[m  
* [33m8a5fa80[m On branch master Changes to be committed:  renamed:    File1.txt -> File1-mv.txt
* [33mbfbd249[m creation
